    firebase
      .init({
        showNotifications: true,
        showNotificationsWhenInForeground: true,

        //GERA O TOKENID
        onPushTokenReceivedCallback: token => {
          console.log("[Firebase] onPushTokenReceivedCallback:", { token });
          this.globo.tokenId = token;

        },

        // NOTIFICAÇÃO EM FOREGROUND
        onMessageReceivedCallback: message => {
          console.log(message.toString());
          this.globo.notificacoes.push({
            data: message.data,
            titulo: message.title,
            mensagem: message.body
          });
        }
      })
      .then(() => {
        console.log("[Firebase] Initialized");
      })
      .catch(error => {
        console.log("[Firebase] Initialize", { error });
      });

      this.globo.estado = "Login";
      this.globo.estado = "Home";


(getString("tokenPersist", this.globo.tokenPersist)

 firebase
        .init({
          showNotifications: true,
          showNotificationsWhenInForeground: true,

          //GERA O TOKENID
          onPushTokenReceivedCallback: token => {
            console.log("[Firebase] onPushTokenReceivedCallback:", { token });
            this.globo.tokenId = token
            (getString("tokenPersist", this.globo.tokenPersist))
            this.globo.estado = "Home";
          },
          

          // NOTIFICAÇÃO EM FOREGROUND
          onMessageReceivedCallback: message => {
            console.log(message.toString());
            this.globo.notificacoes.push({
              data: message.data,
              titulo: message.title,
              mensagem: message.body
            });
          }
        })
        .then(() => {
          console.log("[Firebase] Initialized");
          this.globo.estado = "Login";
        })
        .catch(error => {
          console.log("[Firebase] Initialize", { error });
        });


  setTimeout(() => {
    this.iniciafire()
    console.log("INICIOU")
  }, 1000);



                this.loading = true
                axios.post('http://iese.dev.plugescola.com.br/rest/notificador.php/', {
                codigo: this.codigoInput,
                op: "registra",
                usuario: this.usuarioInput,
                senha: this.senhaInput,
                tipo: "A",
                tokenId: this.tokenId
            })
            .then(response => {

                this.registroSucesso = msg
                this.loading = false
                console.log(response.data)
                const { msg } = response.data
                if(response.data.ok) {
                Toast.makeText(msg, "long").show();
                this.tokenPersist = setString("tokenPersist", this.tokenId)
                this.registroSucesso = msg
                this.vaiprahome()
                } else {
                this.errorMensagem = msg
                console.log(msg)
                }
            }, 
            error => {
                alert("Sem comunicação com a internet")
                console.log(error);
            });